[
  {
    "title": "Medical Health",
    "is_pro": false,
    "type": "gutenberg",
    "author": "BlockskitDev",
    "keywords": ["medical health", "multipurpose"],
    "categories": ["medical"],
    "template_url": {
      "content": "https://gitlab.com/blockskit/blockskit-starter-sites/-/raw/master/demos/medical-health/content.json",
      "options": "https://gitlab.com/blockskit/blockskit-starter-sites/-/raw/master/demos/medical-health/options.json",
      "widgets": "https://gitlab.com/blockskit/blockskit-starter-sites/-/raw/master/demos/medical-health/widgets.json"
    },
    "screenshot_url": "https://gitlab.com/blockskit/blockskit-starter-sites/-/raw/master/screenshots/medical-health-250-350.jpg",
    "demo_url": "https://demo.blockskit.com/medical-health",
    "plugins": []
  },
  {
    "title": "Medical Health Pro",
    "is_pro": true,
    "pro_url": "https://blockskit.com/pricing/",
    "type": "gutenberg",
    "author": "BlockskitDev",
    "keywords": ["medical health", "pro", "multipurpose"],
    "categories": ["medical"],
    "template_url": {},
    "screenshot_url": "https://gitlab.com/blockskit/blockskit-starter-sites/-/raw/master/screenshots/medical-pro-2-250-350.jpg",
    "demo_url": "https://demo.blockskit.com/medical-pro-2",
    "plugins": []
  },
  {
    "title": "Blog",
    "is_pro": false,
    "type": "gutenberg",
    "author": "BlockskitDev",
    "keywords": ["blog", "multipurpose"],
    "categories": ["blog"],
    "template_url": {
      "content": "https://gitlab.com/blockskit/blockskit-starter-sites/-/raw/master/demos/blog/content.json",
      "options": "https://gitlab.com/blockskit/blockskit-starter-sites/-/raw/master/demos/blog/options.json",
      "widgets": "https://gitlab.com/blockskit/blockskit-starter-sites/-/raw/master/demos/blog/widgets.json"
    },
    "screenshot_url": "https://gitlab.com/blockskit/blockskit-starter-sites/-/raw/master/screenshots/blog-250-350.jpg",
    "demo_url": "https://demo.blockskit.com/blog-1",
    "plugins": []
  },
  {
    "title": "Blog Pro",
    "is_pro": true,
    "pro_url": "https://blockskit.com/pricing/",
    "type": "gutenberg",
    "author": "BlockskitDev",
    "keywords": ["blog", "pro", "multipurpose"],
    "categories": ["blog"],
    "template_url": {},
    "screenshot_url": "https://gitlab.com/blockskit/blockskit-starter-sites/-/raw/master/screenshots/blog-250-350.jpg",
    "demo_url": "https://demo.blockskit.com/blog-pro-1",
    "plugins": []
  },
  {
    "title": "Digital Agency",
    "is_pro": false,
    "type": "gutenberg",
    "author": "BlockskitDev",
    "keywords": ["digital agency", "multipurpose"],
    "categories": ["business"],
    "template_url": {
      "content": "https://gitlab.com/blockskit/blockskit-starter-sites/-/raw/master/demos/digital-agency/content.json",
      "options": "https://gitlab.com/blockskit/blockskit-starter-sites/-/raw/master/demos/digital-agency/options.json",
      "widgets": "https://gitlab.com/blockskit/blockskit-starter-sites/-/raw/master/demos/digital-agency/widgets.json"
    },
    "screenshot_url": "https://gitlab.com/blockskit/blockskit-starter-sites/-/raw/master/screenshots/digital-agency-250-350.jpg",
    "demo_url": "https://demo.blockskit.com/digital-agency",
    "plugins": []
  },
  {
    "title": "Digital Agency Pro",
    "is_pro": true,
    "pro_url": "https://blockskit.com/pricing/",
    "type": "gutenberg",
    "author": "BlockskitDev",
    "keywords": ["digital agency", "digital agency pro", "multipurpose"],
    "categories": ["business"],
    "template_url": {},
    "screenshot_url": "https://gitlab.com/blockskit/blockskit-starter-sites/-/raw/master/screenshots/agency-pro-2-250-350.jpg",
    "demo_url": "https://demo.blockskit.com/agency-pro-2",
    "plugins": []
  },
  {
    "title": "Startup",
    "is_pro": false,
    "type": "gutenberg",
    "author": "BlockskitDev",
    "keywords": ["startup", "multipurpose"],
    "categories": ["startup"],
    "template_url": {
      "content": "https://gitlab.com/blockskit/blockskit-starter-sites/-/raw/master/demos/startup/content.json",
      "options": "https://gitlab.com/blockskit/blockskit-starter-sites/-/raw/master/demos/startup/options.json",
      "widgets": "https://gitlab.com/blockskit/blockskit-starter-sites/-/raw/master/demos/startup/widgets.json"
    },
    "screenshot_url": "https://gitlab.com/blockskit/blockskit-starter-sites/-/raw/master/screenshots/startup-250-350.jpg",
    "demo_url": "https://demo.blockskit.com/startup",
    "plugins": []
  },
  {
    "title": "Startup Pro",
    "is_pro": true,
    "pro_url": "https://blockskit.com/pricing/",
    "type": "gutenberg",
    "author": "BlockskitDev",
    "keywords": ["startup", "startup pro", "multipurpose"],
    "categories": ["business"],
    "template_url": {},
    "screenshot_url": "https://gitlab.com/blockskit/blockskit-starter-sites/-/raw/master/screenshots/startup-pro-250-350.jpg",
    "demo_url": "https://demo.blockskit.com/startup-pro",
    "plugins": []
  },
  {
    "title": "Construction",
    "is_pro": false,
    "type": "gutenberg",
    "author": "BlockskitDev",
    "keywords": ["construction", "multipurpose"],
    "categories": ["construction"],
    "template_url": {
      "content": "https://gitlab.com/blockskit/blockskit-starter-sites/-/raw/master/demos/construction/content.json",
      "options": "https://gitlab.com/blockskit/blockskit-starter-sites/-/raw/master/demos/construction/options.json",
      "widgets": "https://gitlab.com/blockskit/blockskit-starter-sites/-/raw/master/demos/construction/widgets.json"
    },
    "screenshot_url": "https://gitlab.com/blockskit/blockskit-starter-sites/-/raw/master/screenshots/construction-250-350.jpg",
    "demo_url": "https://demo.blockskit.com/construction",
    "plugins": []
  },
  {
    "title": "Construction Pro",
    "is_pro": true,
    "pro_url": "https://blockskit.com/pricing/",
    "type": "gutenberg",
    "author": "BlockskitDev",
    "keywords": ["construction", "construction pro", "multipurpose"],
    "categories": ["business"],
    "template_url": {},
    "screenshot_url": "https://gitlab.com/blockskit/blockskit-starter-sites/-/raw/master/screenshots/construction-pro-250-350.jpg",
    "demo_url": "https://demo.blockskit.com/construction-pro",
    "plugins": []
  },
  {
    "title": "Consultancy",
    "is_pro": false,
    "type": "gutenberg",
    "author": "BlockskitDev",
    "keywords": ["consultancy", "multipurpose"],
    "categories": ["business"],
    "template_url": {
      "content": "https://gitlab.com/blockskit/blockskit-starter-sites/-/raw/master/demos/consultancy/content.json",
      "options": "https://gitlab.com/blockskit/blockskit-starter-sites/-/raw/master/demos/consultancy/options.json",
      "widgets": "https://gitlab.com/blockskit/blockskit-starter-sites/-/raw/master/demos/consultancy/widgets.json"
    },
    "screenshot_url": "https://gitlab.com/blockskit/blockskit-starter-sites/-/raw/master/screenshots/consultancy-250-350.jpg",
    "demo_url": "https://demo.blockskit.com/consultancy",
    "plugins": [
      {
        "name": "Ultimate Addons for Gutenberg",
        "slug": "ultimate-addons-for-gutenberg"
      }
    ]
  },
  {
    "title": "Consultancy Pro",
    "is_pro": true,
    "pro_url": "https://blockskit.com/pricing/",
    "type": "gutenberg",
    "author": "BlockskitDev",
    "keywords": ["consultancy", "consultancy pro", "multipurpose"],
    "categories": ["business"],
    "template_url": {},
    "screenshot_url": "https://gitlab.com/blockskit/blockskit-starter-sites/-/raw/master/screenshots/consultancy-pro-250-350.jpg",
    "demo_url": "https://demo.blockskit.com/consultancy-pro",
    "plugins": []
  },
  {
    "title": "Marketing",
    "is_pro": false,
    "type": "gutenberg",
    "author": "BlockskitDev",
    "keywords": ["marketing", "multipurpose"],
    "categories": ["business"],
    "template_url": {
      "content": "https://gitlab.com/blockskit/blockskit-starter-sites/-/raw/master/demos/marketing/content.json",
      "options": "https://gitlab.com/blockskit/blockskit-starter-sites/-/raw/master/demos/marketing/options.json",
      "widgets": "https://gitlab.com/blockskit/blockskit-starter-sites/-/raw/master/demos/marketing/widgets.json"
    },
    "screenshot_url": "https://gitlab.com/blockskit/blockskit-starter-sites/-/raw/master/screenshots/marketing-250-350.jpg",
    "demo_url": "https://demo.blockskit.com/marketing",
    "plugins": [
      {
        "name": "Ultimate Addons for Gutenberg",
        "slug": "ultimate-addons-for-gutenberg"
      }
    ]
  },
  {
    "title": "Marketing Pro",
    "is_pro": true,
    "pro_url": "https://blockskit.com/pricing/",
    "type": "gutenberg",
    "author": "BlockskitDev",
    "keywords": ["marketing", "marketing pro", "multipurpose"],
    "categories": ["business"],
    "template_url": {},
    "screenshot_url": "https://gitlab.com/blockskit/blockskit-starter-sites/-/raw/master/screenshots/marketing-pro-250-350.jpg",
    "demo_url": "https://demo.blockskit.com/marketing-pro",
    "plugins": []
  },
  {
    "title": "Agency",
    "is_pro": false,
    "type": "gutenberg",
    "author": "BlockskitDev",
    "keywords": ["agency", "multipurpose"],
    "categories": ["business"],
    "template_url": {
      "content": "https://gitlab.com/blockskit/blockskit-starter-sites/-/raw/master/demos/agency/content.json",
      "options": "https://gitlab.com/blockskit/blockskit-starter-sites/-/raw/master/demos/agency/options.json",
      "widgets": "https://gitlab.com/blockskit/blockskit-starter-sites/-/raw/master/demos/agency/widgets.json"
    },
    "screenshot_url": "https://gitlab.com/blockskit/blockskit-starter-sites/-/raw/master/screenshots/agency-250-350.jpg",
    "demo_url": "https://demo.blockskit.com/agency",
    "plugins": [
      {
        "name": "Ultimate Addons for Gutenberg",
        "slug": "ultimate-addons-for-gutenberg"
      }
    ]
  },
  {
    "title": "Agency Pro",
    "is_pro": true,
    "pro_url": "https://blockskit.com/pricing/",
    "type": "gutenberg",
    "author": "BlockskitDev",
    "keywords": ["agency", "agency pro", "multipurpose"],
    "categories": ["business"],
    "template_url": {},
    "screenshot_url": "https://gitlab.com/blockskit/blockskit-starter-sites/-/raw/master/screenshots/agency-pro-250-350.jpg",
    "demo_url": "https://demo.blockskit.com/agency-pro",
    "plugins": []
  },
  {
    "title": "Education",
    "is_pro": false,
    "type": "gutenberg",
    "author": "BlockskitDev",
    "keywords": ["education", "multipurpose"],
    "categories": ["education"],
    "template_url": {
      "content": "https://gitlab.com/blockskit/blockskit-starter-sites/-/raw/master/demos/education/content.json",
      "options": "https://gitlab.com/blockskit/blockskit-starter-sites/-/raw/master/demos/education/options.json",
      "widgets": "https://gitlab.com/blockskit/blockskit-starter-sites/-/raw/master/demos/education/widgets.json"
    },
    "screenshot_url": "https://gitlab.com/blockskit/blockskit-starter-sites/-/raw/master/screenshots/education-250-350.jpg",
    "demo_url": "https://demo.blockskit.com/education",
    "plugins": [
      {
        "name": "Ultimate Addons for Gutenberg",
        "slug": "ultimate-addons-for-gutenberg"
      }
    ]
  },
  {
    "title": "Education Pro 2",
    "is_pro": true,
    "type": "gutenberg",
    "author": "BlockskitDev",
    "keywords": ["education", "education pro", "2", "multipurpose"],
    "categories": ["education"],
    "template_url": {},
    "screenshot_url": "https://gitlab.com/blockskit/blockskit-starter-sites/-/raw/master/screenshots/education-pro-2-250-350.jpg",
    "demo_url": "https://demo.blockskit.com/education-pro-2/",
    "pro_url": "https://blockskit.com/pricing/",
    "plugins": []
  },
  {
    "title": "Business",
    "is_pro": false,
    "type": "gutenberg",
    "author": "BlockskitDev",
    "keywords": ["business", "multipurpose"],
    "categories": ["business"],
    "template_url": {
      "content": "https://gitlab.com/blockskit/blockskit-starter-sites/-/raw/master/demos/business/content.json",
      "options": "https://gitlab.com/blockskit/blockskit-starter-sites/-/raw/master/demos/business/options.json",
      "widgets": "https://gitlab.com/blockskit/blockskit-starter-sites/-/raw/master/demos/business/widgets.json"
    },
    "screenshot_url": "https://gitlab.com/blockskit/blockskit-starter-sites/-/raw/master/screenshots/business-250-350.jpg",
    "demo_url": "https://demo.blockskit.com/business",
    "plugins": [
      {
        "name": "Ultimate Addons for Gutenberg",
        "slug": "ultimate-addons-for-gutenberg"
      }
    ]
  },
  {
    "title": "Business Pro",
    "is_pro": true,
    "type": "gutenberg",
    "author": "BlockskitDev",
    "keywords": ["business", "business pro", "multipurpose"],
    "categories": ["business"],
    "template_url": {},
    "screenshot_url": "https://gitlab.com/blockskit/blockskit-starter-sites/-/raw/master/screenshots/business-pro-250-350.jpg",
    "demo_url": "https://demo.blockskit.com/business-pro/",
    "pro_url": "https://blockskit.com/pricing/",
    "plugins": []
  },
  {
    "title": "Base",
    "is_pro": false,
    "type": "gutenberg",
    "author": "BlockskitDev",
    "keywords": ["base", "multipurpose"],
    "categories": ["base"],
    "template_url": {
      "content": "https://gitlab.com/blockskit/blockskit-starter-sites/-/raw/master/demos/base/content.json",
      "options": "https://gitlab.com/blockskit/blockskit-starter-sites/-/raw/master/demos/base/options.json",
      "widgets": "https://gitlab.com/blockskit/blockskit-starter-sites/-/raw/master/demos/base/widgets.json"
    },
    "screenshot_url": "https://gitlab.com/blockskit/blockskit-starter-sites/-/raw/master/screenshots/base-250-350.jpg",
    "demo_url": "https://demo.blockskit.com/base",
    "plugins": [
      {
        "name": "Ultimate Addons for Gutenberg",
        "slug": "ultimate-addons-for-gutenberg"
      }
    ]
  },
  {
    "title": "Base Pro",
    "is_pro": true,
    "type": "gutenberg",
    "author": "BlockskitDev",
    "keywords": ["base", "base pro", "multipurpose"],
    "categories": ["base"],
    "template_url": {},
    "screenshot_url": "https://gitlab.com/blockskit/blockskit-starter-sites/-/raw/master/screenshots/base-pro-250-350.jpg",
    "demo_url": "https://demo.blockskit.com/base-pro/",
    "pro_url": "https://blockskit.com/pricing/",
    "plugins": []
  },
  {
    "title": "Medical Pro",
    "is_pro": true,
    "type": "gutenberg",
    "author": "BlockskitDev",
    "keywords": ["medical", "multipurpose"],
    "categories": ["medical"],
    "template_url": {},
    "screenshot_url": "https://gitlab.com/blockskit/blockskit-starter-sites/-/raw/master/screenshots/medical-pro-250-350.jpg",
    "demo_url": "https://demo.blockskit.com/medical-pro/",
    "pro_url": "https://blockskit.com/pricing/",
    "plugins": []
  },
  {
    "title": "Medical",
    "is_pro": false,
    "type": "gutenberg",
    "author": "BlockskitDev",
    "keywords": ["medical", "multipurpose"],
    "categories": ["medical"],
    "template_url": {
      "content": "https://gitlab.com/blockskit/blockskit-starter-sites/-/raw/master/demos/medical/content.json",
      "options": "https://gitlab.com/blockskit/blockskit-starter-sites/-/raw/master/demos/medical/options.json",
      "widgets": "https://gitlab.com/blockskit/blockskit-starter-sites/-/raw/master/demos/medical/widgets.json"
    },
    "screenshot_url": "https://gitlab.com/blockskit/blockskit-starter-sites/-/raw/master/screenshots/medical-250-350.jpg",
    "demo_url": "https://demo.blockskit.com/medical/",
    "plugins": [
      {
        "name": "Ultimate Addons for Gutenberg",
        "slug": "ultimate-addons-for-gutenberg"
      }
    ]
  },
  {
    "title": "Education Pro 3",
    "is_pro": true,
    "type": "gutenberg",
    "author": "BlockskitDev",
    "keywords": ["education", "education pro", "3", "multipurpose"],
    "categories": ["education"],
    "template_url": {},
    "screenshot_url": "https://gitlab.com/blockskit/blockskit-starter-sites/-/raw/master/screenshots/education-pro-3-250-350.jpg",
    "demo_url": "https://demo.blockskit.com/education-pro-3/",
    "pro_url": "https://blockskit.com/pricing/",
    "plugins": []
  },
  {
    "title": "Shop Pro",
    "is_pro": true,
    "type": "gutenberg",
    "author": "BlockskitDev",
    "keywords": ["shop", "multipurpose"],
    "categories": ["shop"],
    "template_url": {},
    "screenshot_url": "https://gitlab.com/blockskit/blockskit-starter-sites/-/raw/master/screenshots/shop-pro-250-350.jpg",
    "demo_url": "https://demo.blockskit.com/blockskit-shop-pro/",
    "pro_url": "https://blockskit.com/pricing/",
    "plugins": []
  },
  {
    "title": "Shop",
    "is_pro": false,
    "type": "gutenberg",
    "author": "BlockskitDev",
    "keywords": ["shop", "multipurpose"],
    "categories": ["shop"],
    "template_url": {
      "content": "https://gitlab.com/blockskit/blockskit-starter-sites/-/raw/master/demos/shop/content.json",
      "options": "https://gitlab.com/blockskit/blockskit-starter-sites/-/raw/master/demos/shop/options.json",
      "widgets": "https://gitlab.com/blockskit/blockskit-starter-sites/-/raw/master/demos/shop/widgets.json"
    },
    "screenshot_url": "https://gitlab.com/blockskit/blockskit-starter-sites/-/raw/master/screenshots/shop-250-350.jpg",
    "demo_url": "https://demo.blockskit.com/blockskit-shop/",
    "plugins": [
      {
        "name": "Ultimate Addons for Gutenberg",
        "slug": "ultimate-addons-for-gutenberg"
      },
      {
        "name": "WooCommerce",
        "slug": "woocommerce"
      }
    ]
  },
  {
    "title": "Corporate",
    "is_pro": false,
    "type": "gutenberg",
    "author": "BlockskitDev",
    "keywords": ["corporate", "multipurpose"],
    "categories": ["corporate"],
    "template_url": {
      "content": "https://gitlab.com/blockskit/blockskit-starter-sites/-/raw/master/demos/corporate/content.json",
      "options": "https://gitlab.com/blockskit/blockskit-starter-sites/-/raw/master/demos/corporate/options.json",
      "widgets": "https://gitlab.com/blockskit/blockskit-starter-sites/-/raw/master/demos/corporate/widgets.json"
    },
    "screenshot_url": "https://gitlab.com/blockskit/blockskit-starter-sites/-/raw/master/screenshots/corporate-250-350.jpg",
    "demo_url": "https://demo.blockskit.com/corporate",
    "plugins": [
      {
        "name": "Ultimate Addons for Gutenberg",
        "slug": "ultimate-addons-for-gutenberg"
      },
      {
        "name": "WooCommerce",
        "slug": "woocommerce"
      }
    ]
  },
  {
    "title": "Medical Pro 4",
    "is_pro": true,
    "type": "gutenberg",
    "author": "BlockskitDev",
    "keywords": ["medical", "medical pro", "4", "multipurpose"],
    "categories": ["medical"],
    "template_url": {},
    "screenshot_url": "https://gitlab.com/blockskit/blockskit-starter-sites/-/raw/master/screenshots/medical-pro-4-250-350.jpg",
    "demo_url": "https://demo.blockskit.com/medical-pro-4",
    "pro_url": "https://blockskit.com/pricing/",
    "plugins": []
  },
  {
    "title": "Medical Pro 5",
    "is_pro": true,
    "type": "gutenberg",
    "author": "BlockskitDev",
    "keywords": ["medical", "medical pro", "5", "multipurpose"],
    "categories": ["medical"],
    "template_url": {},
    "screenshot_url": "https://gitlab.com/blockskit/blockskit-starter-sites/-/raw/master/screenshots/medical-pro-5-250-350.jpg",
    "demo_url": "https://demo.blockskit.com/medical-pro-5/",
    "pro_url": "https://blockskit.com/pricing/",
    "plugins": []
  },
  {
    "title": "Medical Pro 3",
    "is_pro": true,
    "type": "gutenberg",
    "author": "BlockskitDev",
    "keywords": ["medical", "medical pro", "3", "multipurpose"],
    "categories": ["medical"],
    "template_url": {},
    "screenshot_url": "https://gitlab.com/blockskit/blockskit-starter-sites/-/raw/master/screenshots/medical-pro-3-250-350.jpg",
    "demo_url": "https://demo.blockskit.com/medical-pro-3/",
    "pro_url": "https://blockskit.com/pricing/",
    "plugins": []
  },
  {
    "title": "Corporate Pro 4",
    "is_pro": true,
    "type": "gutenberg",
    "author": "BlockskitDev",
    "keywords": ["corporate", "corporate pro", "4", "multipurpose"],
    "categories": ["corporate"],
    "template_url": {},
    "screenshot_url": "https://gitlab.com/blockskit/blockskit-starter-sites/-/raw/master/screenshots/corporate-pro-4-250-350.jpg",
    "demo_url": "https://demo.blockskit.com/corporate-pro-4/",
    "pro_url": "https://blockskit.com/pricing/",
    "plugins": []
  },
  {
    "title": "Corporate Pro 3",
    "is_pro": true,
    "type": "gutenberg",
    "author": "BlockskitDev",
    "keywords": ["corporate", "corporate pro", "3", "multipurpose"],
    "categories": ["corporate"],
    "template_url": {},
    "screenshot_url": "https://gitlab.com/blockskit/blockskit-starter-sites/-/raw/master/screenshots/corporate-pro-3-250-350.jpg",
    "demo_url": "https://demo.blockskit.com/corporate-pro-3/",
    "pro_url": "https://blockskit.com/pricing/",
    "plugins": []
  },
  {
    "title": "Corporate Pro 2",
    "is_pro": true,
    "type": "gutenberg",
    "author": "BlockskitDev",
    "keywords": ["corporate", "corporate pro", "2", "multipurpose"],
    "categories": ["corporate"],
    "template_url": {},
    "screenshot_url": "https://gitlab.com/blockskit/blockskit-starter-sites/-/raw/master/screenshots/corporate-pro-2-250-350.jpg",
    "demo_url": "https://demo.blockskit.com/corporate-pro-2/",
    "pro_url": "https://blockskit.com/pricing/",
    "plugins": []
  },
  {
    "title": "Default",
    "is_pro": false,
    "type": "gutenberg",
    "author": "BlockskitDev",
    "keywords": ["default", "multipurpose"],
    "categories": ["default"],
    "template_url": {
      "content": "https://gitlab.com/blockskit/blockskit-starter-sites/-/raw/master/demos/default/content.json",
      "options": "https://gitlab.com/blockskit/blockskit-starter-sites/-/raw/master/demos/default/options.json",
      "widgets": "https://gitlab.com/blockskit/blockskit-starter-sites/-/raw/master/demos/default/widgets.json"
    },
    "screenshot_url": "https://gitlab.com/blockskit/blockskit-starter-sites/-/raw/master/screenshots/default-250-300.jpg",
    "demo_url": "https://demo.blockskit.com/default",
    "plugins": [
      {
        "name": "Ultimate Addons for Gutenberg",
        "slug": "ultimate-addons-for-gutenberg"
      }
    ]
  },
  {
    "title": "Accounting Pro 2",
    "is_pro": true,
    "type": "gutenberg",
    "author": "BlockskitDev",
    "keywords": ["accounting", "accounting pro", "multipurpose"],
    "categories": ["business"],
    "template_url": {},
    "screenshot_url": "https://gitlab.com/blockskit/blockskit-starter-sites/-/raw/master/screenshots/accounting-pro-2-250-350.jpg",
    "demo_url": "https://demo.blockskit.com/accounting-pro-2/",
    "pro_url": "https://blockskit.com/pricing/",
    "plugins": []
  },
  {
    "title": "Consultancy Pro 3",
    "is_pro": true,
    "type": "gutenberg",
    "author": "BlockskitDev",
    "keywords": ["consultancy", "consultancy pro", "3", "multipurpose"],
    "categories": ["business"],
    "template_url": {},
    "screenshot_url": "https://gitlab.com/blockskit/blockskit-starter-sites/-/raw/master/screenshots/consultancy-pro-3-250-350.jpg",
    "demo_url": "https://demo.blockskit.com/consultancy-pro-3/",
    "pro_url": "https://blockskit.com/pricing/",
    "plugins": []
  },
  {
    "title": "Consultancy Pro 2",
    "is_pro": true,
    "type": "gutenberg",
    "author": "BlockskitDev",
    "keywords": ["consultancy", "consultancy pro", "2", "multipurpose"],
    "categories": ["business"],
    "template_url": {},
    "screenshot_url": "https://gitlab.com/blockskit/blockskit-starter-sites/-/raw/master/screenshots/consultancy-pro-2-250-350.jpg",
    "demo_url": "https://demo.blockskit.com/consultancy-pro-2/",
    "pro_url": "https://blockskit.com/pricing/",
    "plugins": []
  },
  {
    "title": "Finance Pro 2",
    "is_pro": true,
    "type": "gutenberg",
    "author": "BlockskitDev",
    "keywords": ["finance", "finance pro", "2", "multipurpose"],
    "categories": ["business"],
    "template_url": {},
    "screenshot_url": "https://gitlab.com/blockskit/blockskit-starter-sites/-/raw/master/screenshots/finance-pro-2-250-350.jpg",
    "demo_url": "https://demo.blockskit.com/finance-pro-2/",
    "pro_url": "https://blockskit.com/pricing/",
    "plugins": []
  },
  {
    "title": "Corporate Pro",
    "is_pro": true,
    "type": "gutenberg",
    "author": "BlockskitDev",
    "keywords": ["corporate", "corporate pro", "multipurpose"],
    "categories": ["corporate"],
    "template_url": {},
    "screenshot_url": "https://gitlab.com/blockskit/blockskit-starter-sites/-/raw/master/screenshots/corporate-pro-250-350.jpg",
    "demo_url": "https://demo.blockskit.com/corporate-pro/",
    "pro_url": "https://blockskit.com/pricing/",
    "plugins": []
  },
  {
    "title": "Marketing Pro 2",
    "is_pro": true,
    "type": "gutenberg",
    "author": "BlockskitDev",
    "keywords": ["marketing", "marketing pro", "2", "multipurpose"],
    "categories": ["business"],
    "template_url": {},
    "screenshot_url": "https://gitlab.com/blockskit/blockskit-starter-sites/-/raw/master/screenshots/marketing-pro-2-250-350.jpg",
    "demo_url": "https://demo.blockskit.com/marketing-pro-2/",
    "pro_url": "https://blockskit.com/pricing/",
    "plugins": []
  },
  {
    "title": "Default Pro",
    "is_pro": true,
    "type": "gutenberg",
    "author": "BlockskitDev",
    "keywords": ["default", "default pro", "multipurpose"],
    "categories": ["default"],
    "template_url": {},
    "screenshot_url": "https://gitlab.com/blockskit/blockskit-starter-sites/-/raw/master/screenshots/default-pro-250-300.jpg",
    "demo_url": "https://demo.blockskit.com/default-pro/",
    "pro_url": "https://blockskit.com/pricing/",
    "plugins": []
  },
  {
    "title": "Default Pro 2",
    "is_pro": true,
    "type": "gutenberg",
    "author": "BlockskitDev",
    "keywords": ["default", "default pro", "2", "multipurpose"],
    "categories": ["default"],
    "template_url": {},
    "screenshot_url": "https://gitlab.com/blockskit/blockskit-starter-sites/-/raw/master/screenshots/default-pro-02-250-300.jpg",
    "demo_url": "https://demo.blockskit.com/default-pro-02/",
    "pro_url": "https://blockskit.com/pricing/",
    "plugins": []
  },
  {
    "title": "Default Pro 3",
    "is_pro": true,
    "type": "gutenberg",
    "author": "BlockskitDev",
    "keywords": ["default", "default pro", "3", "multipurpose"],
    "categories": ["default"],
    "template_url": {},
    "screenshot_url": "https://gitlab.com/blockskit/blockskit-starter-sites/-/raw/master/screenshots/default-pro-03-250-300.jpg",
    "demo_url": "https://demo.blockskit.com/default-pro-03/",
    "pro_url": "https://blockskit.com/pricing/",
    "plugins": []
  },
  {
    "title": "Business Pro 5",
    "is_pro": true,
    "type": "gutenberg",
    "author": "BlockskitDev",
    "keywords": ["business", "business pro", "5", "multipurpose"],
    "categories": ["business"],
    "template_url": {},
    "screenshot_url": "https://gitlab.com/blockskit/blockskit-starter-sites/-/raw/master/screenshots/business-pro-5-250-350.jpg",
    "demo_url": "https://demo.blockskit.com/business-pro-5/",
    "pro_url": "https://blockskit.com/pricing/",
    "plugins": []
  },
  {
    "title": "Business Pro 2",
    "is_pro": true,
    "type": "gutenberg",
    "author": "BlockskitDev",
    "keywords": ["business", "business pro", "2", "multipurpose"],
    "categories": ["business"],
    "template_url": {},
    "screenshot_url": "https://gitlab.com/blockskit/blockskit-starter-sites/-/raw/master/screenshots/business-pro-2-250-350.jpg",
    "demo_url": "https://demo.blockskit.com/business-pro-2/",
    "pro_url": "https://blockskit.com/pricing/",
    "plugins": []
  },
  {
    "title": "Business Pro 3",
    "is_pro": true,
    "type": "gutenberg",
    "author": "BlockskitDev",
    "keywords": ["business", "business pro", "3", "multipurpose"],
    "categories": ["business"],
    "template_url": {},
    "screenshot_url": "https://gitlab.com/blockskit/blockskit-starter-sites/-/raw/master/screenshots/business-pro-3-250-350.jpg",
    "demo_url": "https://demo.blockskit.com/business-pro-3/",
    "pro_url": "https://blockskit.com/pricing/",
    "plugins": []
  },
  {
    "title": "Business Pro 4",
    "is_pro": true,
    "type": "gutenberg",
    "author": "BlockskitDev",
    "keywords": ["business", "business pro", "4", "multipurpose"],
    "categories": ["business"],
    "template_url": {},
    "screenshot_url": "https://gitlab.com/blockskit/blockskit-starter-sites/-/raw/master/screenshots/business-pro-4-250-350.jpg",
    "demo_url": "https://demo.blockskit.com/business-pro-4/",
    "pro_url": "https://blockskit.com/pricing/",
    "plugins": []
  }
]